Plots
…
bakery_df =
  read_csv("./Data/Bakery_sales.csv") %>% 
  janitor::clean_names() %>% 
  mutate(
    unit_price = str_replace(unit_price, "€", ""),
    unit_price = str_replace(unit_price, ",", "."),
    unit_price = as.numeric(unit_price),
    product_name = article) %>% 
  filter(product_name != ".") %>% 
  select(-article)

bakery_df

## # A tibble: 234,000 × 7
##       x1 date       time   ticket_number quantity unit_price product_name       
##    <dbl> <date>     <time>         <dbl>    <dbl>      <dbl> <chr>              
##  1     0 2021-01-02 08:38         150040        1       0.9  BAGUETTE           
##  2     1 2021-01-02 08:38         150040        3       1.2  PAIN AU CHOCOLAT   
##  3     4 2021-01-02 09:14         150041        2       1.2  PAIN AU CHOCOLAT   
##  4     5 2021-01-02 09:14         150041        1       1.15 PAIN               
##  5     8 2021-01-02 09:25         150042        5       1.2  TRADITIONAL BAGUET…
##  6    11 2021-01-02 09:25         150043        2       0.9  BAGUETTE           
##  7    12 2021-01-02 09:25         150043        3       1.1  CROISSANT          
##  8    15 2021-01-02 09:27         150044        1       1.05 BANETTE            
##  9    18 2021-01-02 09:32         150045        3       1.2  TRADITIONAL BAGUET…
## 10    19 2021-01-02 09:32         150045        6       1.1  CROISSANT          
## # … with 233,990 more rows
…
