Statistical Analyses
…
bakery_df

## # A tibble: 234,000 × 8
##       x1 date       time   ticket_number quantity unit_price product_name    rev
##    <dbl> <date>     <time>         <dbl>    <dbl>      <dbl> <chr>         <dbl>
##  1     0 2021-01-02 08:38         150040        1       0.9  BAGUETTE       0.9 
##  2     1 2021-01-02 08:38         150040        3       1.2  PAIN AU CHOC…  3.6 
##  3     4 2021-01-02 09:14         150041        2       1.2  PAIN AU CHOC…  2.4 
##  4     5 2021-01-02 09:14         150041        1       1.15 PAIN           1.15
##  5     8 2021-01-02 09:25         150042        5       1.2  TRADITIONAL …  6   
##  6    11 2021-01-02 09:25         150043        2       0.9  BAGUETTE       1.8 
##  7    12 2021-01-02 09:25         150043        3       1.1  CROISSANT      3.3 
##  8    15 2021-01-02 09:27         150044        1       1.05 BANETTE        1.05
##  9    18 2021-01-02 09:32         150045        3       1.2  TRADITIONAL …  3.6 
## 10    19 2021-01-02 09:32         150045        6       1.1  CROISSANT      6.6 
## # … with 233,990 more rows
…
